<svg width="146" height="145" viewBox="0 0 146 145" fill="none" xmlns="http://www.w3.org/2000/svg">
<path d="M67.0588 144.972C104.094 144.972 134.118 114.827 134.118 77.6405C134.118 40.454 104.094 10.3085 67.0588 10.3085C30.0233 10.3085 0 40.454 0 77.6405C0 114.827 30.0233 144.972 67.0588 144.972Z" fill="#C5DB37"/>
<path fill-rule="evenodd" clip-rule="evenodd" d="M142.794 19.98C142.243 19.98 141.655 19.7585 141.25 19.3155L125.772 3.7745C124.927 2.92547 124.927 1.52272 125.772 0.636774C126.618 -0.212258 128.015 -0.212258 128.897 0.636774L144.375 16.1778C145.221 17.0268 145.221 18.4295 144.375 19.3155C143.934 19.7585 143.383 19.98 142.794 19.98ZM138.199 25.0743C137.647 25.0743 137.059 24.8528 136.655 24.4098L134.339 22.0842L127.096 29.3563L131.765 34.0444C132.611 34.8935 132.611 36.2962 131.765 37.1822L113.33 55.6782C116.222 58.1458 121.054 63.162 121.655 69.4823C122.096 74.0228 120.331 78.3418 116.397 82.2917C105.362 93.3715 81.9501 116.246 75.6776 122.371C76.0939 123.388 76.3237 124.501 76.3237 125.666C76.3237 125.978 76.3072 126.286 76.2752 126.589H91.1396C92.3529 126.589 93.3455 127.586 93.3455 128.804C93.3455 130.022 92.3529 131.019 91.1396 131.019H74.4853C72.8951 133.061 70.4196 134.378 67.6472 134.378C64.8748 134.378 62.3992 133.061 60.809 131.019H43.3455C42.1323 131.019 41.1396 130.022 41.1396 128.804C41.1396 127.586 42.1323 126.589 43.3455 126.589H59.0192C58.9871 126.286 58.9707 125.978 58.9707 125.666C58.9707 124.994 59.0472 124.339 59.1918 123.71C59.1917 123.71 59.1916 123.71 59.1915 123.71C53.8633 118.36 35.9609 99.3345 29.9785 92.9769L29.9782 92.9765L29.9775 92.9758L29.965 92.9625C28.773 91.6958 28.0578 90.9357 28.015 90.8927C27.1694 90.0068 27.2062 88.604 28.1253 87.755C29.0076 86.906 30.4047 86.9429 31.2503 87.8657C31.2933 87.909 32.0143 88.6763 33.2148 89.9539L33.2263 89.9661L33.2278 89.9677L33.2281 89.968L33.2291 89.9691C38.9013 96.0058 55.1943 113.346 61.3757 119.655C62.9573 117.993 65.1852 116.954 67.6472 116.954C69.6771 116.954 71.5479 117.66 73.0285 118.84C79.7839 112.248 102.56 90.0152 113.346 79.1539C116.287 76.2008 117.647 73.063 117.316 69.9253C116.831 64.9205 112.516 60.7285 110.201 58.8169L84.3753 84.728C83.9341 85.134 83.3826 85.3555 82.8312 85.3555C82.2797 85.3555 81.6915 85.134 81.2871 84.6911L60.4047 63.7237C59.5591 62.8746 59.5591 61.4719 60.4047 60.5859L107.464 13.3354C108.309 12.4864 109.706 12.4864 110.589 13.3354L115.111 17.8759L122.629 10.3269L121.03 8.72116C120.184 7.87213 120.184 6.46938 121.03 5.58343C121.875 4.7344 123.272 4.7344 124.155 5.58343L139.78 21.2721C140.625 22.1211 140.625 23.5239 139.78 24.4098C139.338 24.8528 138.75 25.0743 138.199 25.0743ZM69.6543 121.925C69.0559 121.603 68.3725 121.421 67.6472 121.421C66.592 121.421 65.6255 121.807 64.8804 122.446C65.5628 122.74 66.2411 122.877 66.9121 122.861C67.983 122.826 68.9403 122.384 69.6543 121.925ZM71.8202 126.589C71.8802 126.304 71.9117 126.008 71.9119 125.705C71.4161 126.021 70.85 126.329 70.2224 126.589H71.8202ZM108.702 54.0425C108.498 54.1843 108.317 54.3637 108.168 54.579L82.8312 80.0398L65.037 62.1733L109.044 18.0236L113.566 22.564C114.449 23.4131 115.846 23.4131 116.691 22.564L125.754 13.4647L131.214 18.9465L122.427 27.769C121.581 28.6549 121.581 30.0577 122.427 30.9067L127.096 35.5579L108.702 54.0425ZM59.3014 84.3219C63.2352 89.0101 71.0661 89.6007 74.7058 89.6007C75.5502 89.6007 76.187 89.5544 76.452 89.5351L76.529 89.5296L76.5536 89.528C76.5662 89.5273 76.5753 89.5269 76.5808 89.5269C77.4631 89.4531 78.1984 88.8993 78.4925 88.0872C78.7866 87.2751 78.6028 86.3892 77.9778 85.7616L59.2278 66.9352C58.6396 66.3446 57.7572 66.16 56.9484 66.4184C56.1396 66.6768 55.5881 67.3782 55.4778 68.2272L55.4734 68.2731C55.3911 69.1042 54.4586 78.523 59.3014 84.3219ZM62.6837 81.4795C60.919 79.3754 60.1837 76.4222 59.9264 73.8752L70.919 84.9495C67.8675 84.5434 64.4484 83.5837 62.6837 81.4795Z" fill="#37328F"/>
<path d="M67.5 130C69.9853 130 72 127.985 72 125.5C72 123.015 69.9853 121 67.5 121C65.0147 121 63 123.015 63 125.5C63 127.985 65.0147 130 67.5 130Z" fill="#C5DB37"/>
</svg>
